United States Coronavirus Pandemic
…
## # A tibble: 1 x 4
##   state  fips `State's Total COVID-19 Cases, N… `State's Total COVID-19 Deaths,…
##   <int> <int>                             <int>                            <int>
## 1    52    52                                53                               52

CoronaDeathsBySexAndAge2 %>% summarize_all(n_distinct) #Has 53 States 

## # A tibble: 1 x 5
##   State   Sex `Age group` `COVID-19 Deaths` `Total Deaths`
##   <int> <int>       <int>             <int>          <int>
## 1    53     2          11               291            733

anti_join(CoronaDeathsBySexAndAge2,CoronaCasesDeathsStates2, by=c("State" = "state")) #Used to see which states are extra in CoronaDeathsBySexAndAge2; CoronaDeathsBySexAndAge2 has 1 extra states not in CoronaCasesDeathsStates2: New York City 

## # A tibble: 22 x 5
##    State         Sex   `Age group`  `COVID-19 Deaths` `Total Deaths`
##    <chr>         <chr> <chr>                    <dbl>          <dbl>
##  1 New York City Male  Under 1 year                NA            115
##  2 New York City Male  1-4 years                   NA             19
##  3 New York City Male  5-14 years                  NA             37
##  4 New York City Male  15-24 years                 23            231
##  5 New York City Male  25-34 years                112            611
##  6 New York City Male  35-44 years                396           1159
##  7 New York City Male  45-54 years                985           2330
##  8 New York City Male  55-64 years               2213           5019
##  9 New York City Male  65-74 years               3254           6904
## 10 New York City Male  75-84 years               3095           7084
## # … with 12 more rows

CoronaDeathsBySexAndAge2 %>% filter(str_detect(`State`, "New York")) #New York is broken down into New York and New York City 

## # A tibble: 44 x 5
##    State    Sex   `Age group`  `COVID-19 Deaths` `Total Deaths`
##    <chr>    <chr> <chr>                    <dbl>          <dbl>
##  1 New York Male  Under 1 year                 0            144
##  2 New York Male  1-4 years                    0             27
##  3 New York Male  5-14 years                  NA             45
##  4 New York Male  15-24 years                 11            320
##  5 New York Male  25-34 years                 44            777
##  6 New York Male  35-44 years                124           1021
##  7 New York Male  45-54 years                369           1990
##  8 New York Male  55-64 years                905           4656
##  9 New York Male  65-74 years               1450           6982
## 10 New York Male  75-84 years               1585           8169
## # … with 34 more rows
…
## # A tibble: 1 x 2
##   `State's Total COVID-19 Cases, No Sex/… `State's Total COVID-19 Deaths, No Se…
##                                     <dbl>                                  <dbl>
## 1                                 5005994                                 161930

NewYorkTimesTotalCasesDeaths %>% summarize_all(funs(min))

## # A tibble: 1 x 2
##   `State's Total COVID-19 Cases, No Sex/… `State's Total COVID-19 Deaths, No Se…
##                                     <dbl>                                  <dbl>
## 1                                    1454                                     24

CoronaProj1 %>% filter(`State's Total COVID-19 Cases, No Sex/Age` == "1454")

## # A tibble: 22 x 8
##    state fips  Sex   `Age group` `COVID-19 Death… `Total Deaths`
##    <chr> <chr> <chr> <chr>                  <dbl>          <dbl>
##  1 Verm… 50    Male  Under 1 ye…                0              0
##  2 Verm… 50    Male  1-4 years                  0              0
##  3 Verm… 50    Male  5-14 years                 0              0
##  4 Verm… 50    Male  15-24 years                0             14
##  5 Verm… 50    Male  25-34 years                0             42
##  6 Verm… 50    Male  35-44 years                0             53
##  7 Verm… 50    Male  45-54 years                0             96
##  8 Verm… 50    Male  55-64 years                0            241
##  9 Verm… 50    Male  65-74 years                0            352
## 10 Verm… 50    Male  75-84 years               16            425
## # … with 12 more rows, and 2 more variables: `State's Total COVID-19 Cases, No
## #   Sex/Age` <dbl>, `State's Total COVID-19 Deaths, No Sex/Age` <dbl>

CoronaProj1 %>% filter(`State's Total COVID-19 Deaths, No Sex/Age` == "24")

## # A tibble: 22 x 8
##    state fips  Sex   `Age group` `COVID-19 Death… `Total Deaths`
##    <chr> <chr> <chr> <chr>                  <dbl>          <dbl>
##  1 Alas… 02    Male  Under 1 ye…                0              0
##  2 Alas… 02    Male  1-4 years                  0              0
##  3 Alas… 02    Male  5-14 years                 0              0
##  4 Alas… 02    Male  15-24 years                0             40
##  5 Alas… 02    Male  25-34 years                0             53
##  6 Alas… 02    Male  35-44 years                0             54
##  7 Alas… 02    Male  45-54 years                0             83
##  8 Alas… 02    Male  55-64 years                0            226
##  9 Alas… 02    Male  65-74 years                0            271
## 10 Alas… 02    Male  75-84 years                0            275
## # … with 12 more rows, and 2 more variables: `State's Total COVID-19 Cases, No
## #   Sex/Age` <dbl>, `State's Total COVID-19 Deaths, No Sex/Age` <dbl>

NewYorkTimesTotalCasesDeaths %>% summarize_all(funs(max))

## # A tibble: 1 x 2
##   `State's Total COVID-19 Cases, No Sex/… `State's Total COVID-19 Deaths, No Se…
##                                     <dbl>                                  <dbl>
## 1                                  556155                                  32345

CoronaProj1 %>% filter(`State's Total COVID-19 Cases, No Sex/Age` == "556155")

## # A tibble: 22 x 8
##    state fips  Sex   `Age group` `COVID-19 Death… `Total Deaths`
##    <chr> <chr> <chr> <chr>                  <dbl>          <dbl>
##  1 Cali… 06    Male  Under 1 ye…                0            494
##  2 Cali… 06    Male  1-4 years                  0             95
##  3 Cali… 06    Male  5-14 years                 0            140
##  4 Cali… 06    Male  15-24 years                0           1355
##  5 Cali… 06    Male  25-34 years               67           2554
##  6 Cali… 06    Male  35-44 years              190           3252
##  7 Cali… 06    Male  45-54 years              457           5622
##  8 Cali… 06    Male  55-64 years              947          12314
##  9 Cali… 06    Male  65-74 years             1351          17015
## 10 Cali… 06    Male  75-84 years             1284          18743
## # … with 12 more rows, and 2 more variables: `State's Total COVID-19 Cases, No
## #   Sex/Age` <dbl>, `State's Total COVID-19 Deaths, No Sex/Age` <dbl>

CoronaProj1 %>% filter(`State's Total COVID-19 Deaths, No Sex/Age` == "32345") 

## # A tibble: 22 x 8
##    state fips  Sex   `Age group` `COVID-19 Death… `Total Deaths`
##    <chr> <chr> <chr> <chr>                  <dbl>          <dbl>
##  1 New … 36    Male  Under 1 ye…                0            259
##  2 New … 36    Male  1-4 years                  0             46
##  3 New … 36    Male  5-14 years                 0             82
##  4 New … 36    Male  15-24 years               34            551
##  5 New … 36    Male  25-34 years              156           1388
##  6 New … 36    Male  35-44 years              520           2180
##  7 New … 36    Male  45-54 years             1354           4320
##  8 New … 36    Male  55-64 years             3118           9675
##  9 New … 36    Male  65-74 years             4704          13886
## 10 New … 36    Male  75-84 years             4680          15253
## # … with 12 more rows, and 2 more variables: `State's Total COVID-19 Cases, No
## #   Sex/Age` <dbl>, `State's Total COVID-19 Deaths, No Sex/Age` <dbl>
…
TotalCovidDeathsByStateAgeGroup %>% filter(`Age group`=="85 years and over") %>% filter(`Total COVID-19 Death (NCHS)` == "8928")

## # A tibble: 1 x 3
##   state    `Age group`       `Total COVID-19 Death (NCHS)`
##   <chr>    <chr>                                     <dbl>
## 1 New York 85 years and over                          8928

#COVID-19 DEATHS BY STATE 
NCHSOverallCovidDeathsByState <- NCHSOverallCovidDeathsByAgeGroupState %>% select(-1,-54)  %>% summarize_all(funs(sum)) %>% pivot_longer(c(1:52), names_to="States", values_to="NCHS Total COVID-19 Deaths")

NCHSOverallCovidDeathsByState %>% arrange(`NCHS Total COVID-19 Deaths`)

## # A tibble: 52 x 2
##    States        `NCHS Total COVID-19 Deaths`
##    <chr>                                <dbl>
##  1 Alaska                                   0
##  2 Hawaii                                   0
##  3 Wyoming                                  0
##  4 Puerto Rico                             15
##  5 Montana                                 23
##  6 Vermont                                 26
##  7 West Virginia                          106
##  8 North Dakota                           112
##  9 Maine                                  115
## 10 South Dakota                           127
## # … with 42 more rows

NCHSOverallCovidDeathsByState %>% arrange(-`NCHS Total COVID-19 Deaths`)

## # A tibble: 52 x 2
##    States        `NCHS Total COVID-19 Deaths`
##    <chr>                                <dbl>
##  1 New York                             31937
##  2 New Jersey                           13988
##  3 California                            9448
##  4 Texas                                 7938
##  5 Massachusetts                         7859
##  6 Pennsylvania                          7523
##  7 Florida                               6975
##  8 Illinois                              6955
##  9 Michigan                              5814
## 10 Connecticut                           4204
## # … with 42 more rows
…
