United States Heart Failure Factors
…
HeartFailureFactors

## # A tibble: 950 x 16
##    death   los   age gender cancer  cabg dementia diabetes hypertension
##    <chr> <dbl> <dbl>  <dbl>  <dbl> <dbl>    <dbl>    <dbl>        <dbl>
##  1 Alive    10    74      1      0     0        0        0            1
##  2 Alive     3    83      2      0     0        0        0            1
##  3 Alive     1    79      1      0     0        0        1            1
##  4 Alive    17    94      2      0     0        0        1            1
##  5 Alive     3    63      1      0     0        0        0            1
##  6 Alive    12    86      2      0     0        0        0            1
##  7 Alive     2    72      2      0     0        0        0            0
##  8 Alive     2    82      2      0     0        0        0            0
##  9 Alive     3    57      1      0     0        0        0            1
## 10 Alive     3    87      2      0     0        0        0            1
## # … with 940 more rows, and 7 more variables: mental_health <dbl>,
## #   arrhythmias <dbl>, obesity <dbl>, stroke <dbl>, quintile <dbl>,
## #   ethnicgroup <dbl>, fu_time <dbl>
…
## [1] 1.008022

## [1] 0.97415

## [1] 0.08451975

#AUC, ROC, and Whatnot 
library(plotROC)

HeartFailureFactors4$prob <- predict(heartfit1, type="response")
HeartFailureFactors4$pred <- ifelse(HeartFailureFactors4$prob > 0.5, 1, 0)
HeartFailureFactors4 %>% select(death, gender, cabg, prob, pred)

## # A tibble: 950 x 5
##    death gender  cabg  prob  pred
##    <dbl> <fct>  <dbl> <dbl> <dbl>
##  1     0 Male       0 0.495     0
##  2     0 Female     0 0.502     1
##  3     0 Male       0 0.495     0
##  4     0 Female     0 0.502     1
##  5     0 Male       0 0.495     0
##  6     0 Female     0 0.502     1
##  7     0 Female     0 0.502     1
##  8     0 Female     0 0.502     1
##  9     0 Male       0 0.495     0
## 10     0 Female     0 0.502     1
## # … with 940 more rows
…
